gofer plot for meta-analysis
…
# Calculate the maximum percentage value in your data
max_percentage <- max(data_sex$percentage, na.rm = TRUE)
max_percentage

[1] 0.7129187

data_sex

# A tibble: 29 × 4
   study                sex        n percentage
   <fct>                <chr>  <int>      <dbl>
 1 ZellerG_2014_case    female   182      0.355
 2 ZellerG_2014_case    male     330      0.645
 3 ZellerG_2014_control female   222      0.541
 4 ZellerG_2014_control male     188      0.459
 5 FengQ_2015_case      female    84      0.452
 6 FengQ_2015_case      male     102      0.548
 7 FengQ_2015_control   female    50      0.410
 8 FengQ_2015_control   male      72      0.590
 9 YuJ_2015_case        female    26      0.351
10 YuJ_2015_case        male      48      0.649
# ℹ 19 more rows
…
